…
``` r
view(connections_fixed)
```

## Get count of contacts by current employers

``` r
relations = connections_fixed %>% 
  count(Company) %>% 
  arrange(-n)
relations
```

    ## # A tibble: 117 x 2
    ##    Company                                                 n
    ##    <chr>                                               <int>
    ##  1 McGill University - Desautels Faculty of Management     6
    ##  2 Verint                                                  6
    ##  3 Air Transat                                             3
    ##  4 Metrolinx                                               3
    ##  5 Rogers Communications                                   3
    ##  6 University of Michigan                                  3
    ##  7 Capital One                                             2
    ##  8 DHL eCommerce Solutions                                 2
    ##  9 McGill University                                       2
    ## 10 Michigan Medicine                                       2
    ## # ... with 107 more rows
…
