…
# 1. Data Pre-Processing

## Get examiner gender

``` r
# get a list of first names without repetitions
examiner_names <- applications %>% 
  distinct(examiner_name_first)
examiner_names
```

    ## # A tibble: 2,595 x 1
    ##    examiner_name_first
    ##    <chr>              
    ##  1 JACQUELINE         
    ##  2 BEKIR              
    ##  3 CYNTHIA            
    ##  4 MARY               
    ##  5 MICHAEL            
    ##  6 LINDA              
    ##  7 KARA               
    ##  8 VANESSA            
    ##  9 TERESA             
    ## 10 SUN                
    ## # ... with 2,585 more rows

``` r
# get a table of names and gender
examiner_names_gender <- examiner_names %>% 
  do(results = gender(.$examiner_name_first, method = "ssa")) %>% 
  unnest(cols = c(results), keep_empty = TRUE) %>% 
  select(
    examiner_name_first = name,
    gender,
    proportion_female
  )
examiner_names_gender
```

    ## # A tibble: 1,822 x 3
    ##    examiner_name_first gender proportion_female
    ##    <chr>               <chr>              <dbl>
    ##  1 AARON               male              0.0082
    ##  2 ABDEL               male              0     
    ##  3 ABDOU               male              0     
    ##  4 ABDUL               male              0     
    ##  5 ABDULHAKIM          male              0     
    ##  6 ABDULLAH            male              0     
    ##  7 ABDULLAHI           male              0     
    ##  8 ABIGAIL             female            0.998 
    ##  9 ABIMBOLA            female            0.944 
    ## 10 ABRAHAM             male              0.0031
    ## # ... with 1,812 more rows
…
    ##            used  (Mb) gc trigger  (Mb) max used  (Mb)
    ## Ncells  4672063 249.6    8086375 431.9  5001677 267.2
    ## Vcells 49693553 379.2   95643299 729.8 80009128 610.5

## Get examiner race

``` r
examiner_surnames <- applications %>% 
  select(surname = examiner_name_last) %>% 
  distinct()
examiner_surnames
```

    ## # A tibble: 3,806 x 1
    ##    surname   
    ##    <chr>     
    ##  1 HOWARD    
    ##  2 YILDIRIM  
    ##  3 HAMILTON  
    ##  4 MOSHER    
    ##  5 BARR      
    ##  6 GRAY      
    ##  7 MCMILLIAN 
    ##  8 FORD      
    ##  9 STRZELECKA
    ## 10 KIM       
    ## # ... with 3,796 more rows
``` r
examiner_race <- predict_race(voter.file = examiner_surnames, surname.only = T) %>% 
  as_tibble()
```

    ## [1] "Proceeding with surname-only predictions..."

    ## Warning in merge_surnames(voter.file): Probabilities were imputed for 698
    ## surnames that could not be matched to Census list.

``` r
examiner_race
```

    ## # A tibble: 3,806 x 6
    ##    surname    pred.whi pred.bla pred.his pred.asi pred.oth
    ##    <chr>         <dbl>    <dbl>    <dbl>    <dbl>    <dbl>
    ##  1 HOWARD       0.643   0.295    0.0237   0.005     0.0333
    ##  2 YILDIRIM     0.861   0.0271   0.0609   0.0135    0.0372
    ##  3 HAMILTON     0.702   0.237    0.0245   0.0054    0.0309
    ##  4 MOSHER       0.947   0.00410  0.0241   0.00640   0.0185
    ##  5 BARR         0.827   0.117    0.0226   0.00590   0.0271
    ##  6 GRAY         0.687   0.251    0.0241   0.0054    0.0324
    ##  7 MCMILLIAN    0.359   0.574    0.0189   0.00260   0.0463
    ##  8 FORD         0.620   0.32     0.0237   0.0045    0.0313
    ##  9 STRZELECKA   0.666   0.0853   0.137    0.0797    0.0318
    ## 10 KIM          0.0252  0.00390  0.00650  0.945     0.0198
    ## # ... with 3,796 more rows
``` r
examiner_race <- examiner_race %>% 
  mutate(max_race_p = pmax(pred.asi, pred.bla, pred.his, pred.oth, pred.whi)) %>% 
  mutate(race = case_when(
    max_race_p == pred.asi ~ "asian",
    max_race_p == pred.bla ~ "black",
    max_race_p == pred.his ~ "hispanic",
    max_race_p == pred.oth ~ "other",
    max_race_p == pred.whi ~ "white",
    TRUE ~ NA_character_
  ))
examiner_race
```

    ## # A tibble: 3,806 x 8
    ##    surname    pred.whi pred.bla pred.his pred.asi pred.oth max_race_p race 
    ##    <chr>         <dbl>    <dbl>    <dbl>    <dbl>    <dbl>      <dbl> <chr>
    ##  1 HOWARD       0.643   0.295    0.0237   0.005     0.0333      0.643 white
    ##  2 YILDIRIM     0.861   0.0271   0.0609   0.0135    0.0372      0.861 white
    ##  3 HAMILTON     0.702   0.237    0.0245   0.0054    0.0309      0.702 white
    ##  4 MOSHER       0.947   0.00410  0.0241   0.00640   0.0185      0.947 white
    ##  5 BARR         0.827   0.117    0.0226   0.00590   0.0271      0.827 white
    ##  6 GRAY         0.687   0.251    0.0241   0.0054    0.0324      0.687 white
    ##  7 MCMILLIAN    0.359   0.574    0.0189   0.00260   0.0463      0.574 black
    ##  8 FORD         0.620   0.32     0.0237   0.0045    0.0313      0.620 white
    ##  9 STRZELECKA   0.666   0.0853   0.137    0.0797    0.0318      0.666 white
    ## 10 KIM          0.0252  0.00390  0.00650  0.945     0.0198      0.945 asian
    ## # ... with 3,796 more rows
…
    ##            used  (Mb) gc trigger  (Mb) max used  (Mb)
    ## Ncells  5011277 267.7    8086375 431.9  5988619 319.9
    ## Vcells 53378268 407.3   95643299 729.8 94375002 720.1

## Get examiner tenure

``` r
examiner_dates <- applications %>% 
  select(examiner_id, filing_date, appl_status_date) 
examiner_dates
```

    ## # A tibble: 2,018,477 x 3
    ##    examiner_id filing_date appl_status_date  
    ##          <dbl> <date>      <chr>             
    ##  1       96082 2000-01-26  30jan2003 00:00:00
    ##  2       87678 2000-10-11  27sep2010 00:00:00
    ##  3       63213 2000-05-17  30mar2009 00:00:00
    ##  4       73788 2001-07-20  07sep2009 00:00:00
    ##  5       77294 2000-04-10  19apr2001 00:00:00
    ##  6       68606 2000-04-28  16jul2001 00:00:00
    ##  7       89557 2004-01-26  15may2017 00:00:00
    ##  8       97543 2000-06-23  03apr2002 00:00:00
    ##  9       98714 2000-02-04  27nov2002 00:00:00
    ## 10       65530 2002-02-20  23mar2009 00:00:00
    ## # ... with 2,018,467 more rows
…
``` r
examiner_dates <- examiner_dates %>% 
  group_by(examiner_id) %>% 
  summarise(
    earliest_date = min(start_date, na.rm = TRUE), 
    latest_date = max(end_date, na.rm = TRUE),
    tenure_days = interval(earliest_date, latest_date) %/% days(1)
    ) %>% 
  filter(year(latest_date)<2018)
examiner_dates
```

    ## # A tibble: 5,625 x 4
    ##    examiner_id earliest_date latest_date tenure_days
    ##          <dbl> <date>        <date>            <dbl>
    ##  1       59012 2004-07-28    2015-07-24         4013
    ##  2       59025 2009-10-26    2017-05-18         2761
    ##  3       59030 2005-12-12    2017-05-22         4179
    ##  4       59040 2007-09-11    2017-05-23         3542
    ##  5       59052 2001-08-21    2007-02-28         2017
    ##  6       59054 2000-11-10    2016-12-23         5887
    ##  7       59055 2004-11-02    2007-12-26         1149
    ##  8       59056 2000-03-24    2017-05-22         6268
    ##  9       59074 2000-01-31    2017-03-17         6255
    ## 10       59081 2011-04-21    2017-05-19         2220
    ## # ... with 5,615 more rows
…
``` r
applications %>% count(workgroup, sort = TRUE)
```

    ## # A tibble: 42 x 2
    ##    workgroup      n
    ##        <dbl>  <int>
    ##  1       162 143718
    ##  2       176 108000
    ##  3       163  99474
    ##  4       164  98385
    ##  5       179  89960
    ##  6       165  87749
    ##  7       172  79568
    ##  8       174  72723
    ##  9       173  71981
    ## 10       180  69103
    ## # ... with 32 more rows

``` r
tc_168 = applications[which(applications$workgroup==168),]
tc_215 = applications[which(applications$workgroup==215),]
tc_168
```

    ## # A tibble: 14,379 x 23
    ##    application_number filing_date examiner_name_last examiner_name_first
    ##    <chr>              <date>      <chr>              <chr>              
    ##  1 09463800           2000-06-12  CHIN               CHRISTOPHER        
    ##  2 09479498           2000-01-07  COOK               LISA               
    ##  3 09480846           2000-01-10  CHIN               CHRISTOPHER        
    ##  4 09482460           2000-01-13  CHIN               CHRISTOPHER        
    ##  5 09482604           2000-01-14  CHEU               CHANGHWA           
    ##  6 09483019           2000-01-13  GABEL              GAILENE            
    ##  7 09483540           2000-01-14  LAM                ANN                
    ##  8 09486362           2000-02-28  COUNTS             GARY               
    ##  9 09486640           2000-02-29  DO                 PENSEE             
    ## 10 09486970           2000-05-23  RUSSEL             JEFFREY            
    ## # ... with 14,369 more rows, and 19 more variables: examiner_name_middle <chr>,
    ## #   examiner_id <dbl>, examiner_art_unit <dbl>, uspc_class <chr>,
    ## #   uspc_subclass <chr>, patent_number <chr>, patent_issue_date <date>,
    ## #   abandon_date <date>, disposal_type <chr>, appl_status_code <dbl>,
    ## #   appl_status_date <chr>, tc <dbl>, gender <chr>, race <chr>,
    ## #   earliest_date <date>, latest_date <date>, tenure_days <dbl>,
    ## #   tenure_years <dbl>, workgroup <dbl>

``` r
tc_215
```

    ## # A tibble: 14,503 x 23
    ##    application_number filing_date examiner_name_last examiner_name_first
    ##    <chr>              <date>      <chr>              <chr>              
    ##  1 09224808           2001-06-18  COURTENAY III      ST JOHN            
    ##  2 09230391           2000-02-23  EL HADY            NABIL              
    ##  3 09270600           2002-07-08  FLYNN              KIMBERLY           
    ##  4 09402633           2000-05-25  DINH               KHANH              
    ##  5 09402931           2000-01-24  CHANG              JUNGWON            
    ##  6 09403813           2000-03-20  WHIPPLE            BRIAN              
    ##  7 09424397           2000-04-05  CALDWELL           ANDREW             
    ##  8 09445033           2000-01-18  PARTON             KEVIN              
    ##  9 09445639           2000-04-14  HU                 JINSONG            
    ## 10 09445843           2001-06-22  FLYNN              KIMBERLY           
    ## # ... with 14,493 more rows, and 19 more variables: examiner_name_middle <chr>,
    ## #   examiner_id <dbl>, examiner_art_unit <dbl>, uspc_class <chr>,
    ## #   uspc_subclass <chr>, patent_number <chr>, patent_issue_date <date>,
    ## #   abandon_date <date>, disposal_type <chr>, appl_status_code <dbl>,
    ## #   appl_status_date <chr>, tc <dbl>, gender <chr>, race <chr>,
    ## #   earliest_date <date>, latest_date <date>, tenure_days <dbl>,
    ## #   tenure_years <dbl>, workgroup <dbl>
…
